Data manipulation with dplyr
…
---
## First, let's get some data

```r
library(readr)

cars2020 <- read_csv("data/cars2020.csv")
cars2020
```

```
# A tibble: 1,164 x 14
   make  model   mpg transmission gears drive  disp   cyl class sidi  aspiration
   <chr> <chr> <dbl> <chr>        <dbl> <chr> <dbl> <dbl> <chr> <chr> <chr>     
 1 Acura ILX    27.9 Manual           8 FWD     2.4     4 Comp… Y     Natural   
 2 Acura MDX …  22.1 Automatic        9 AWD     3.5     6 Sm S… Y     Natural   
 3 Acura MDX …  21.3 Automatic        9 AWD     3.5     6 Sm S… Y     Natural   
 4 Acura MDX …  23   Automatic        9 FWD     3.5     6 Sm S… Y     Natural   
 5 Acura MDX …  26.9 Manual           7 AWD     3       6 Sm S… N     Natural   
 6 Acura NSX …  21   Manual           9 AWD     3.5     6 Two … Y     Turbo     
 7 Acura RDX …  23   Automatic       10 AWD     2       4 Sm S… Y     Turbo     
 8 Acura RDX …  22.9 Automatic       10 AWD     2       4 Sm S… Y     Turbo     
 9 Acura RDX …  24   Automatic       10 FWD     2       4 Sm S… Y     Turbo     
10 Acura RDX …  23.6 Automatic       10 FWD     2       4 Sm S… Y     Turbo     
# … with 1,154 more rows, and 3 more variables: fuel <chr>, atvType <chr>,
#   startStop <chr>
```
…
---
## filter

#### a function for specifying which rows to keep

Example 1: How do we get all vehicles with manual transmissions?

```r
manual <- filter(cars2020, transmission == "Manual")
manual
```

```
# A tibble: 224 x 14
   make  model   mpg transmission gears drive  disp   cyl class sidi  aspiration
   <chr> <chr> <dbl> <chr>        <dbl> <chr> <dbl> <dbl> <chr> <chr> <chr>     
 1 Acura ILX    27.9 Manual           8 FWD     2.4     4 Comp… Y     Natural   
 2 Acura MDX …  26.9 Manual           7 AWD     3       6 Sm S… N     Natural   
 3 Acura NSX …  21   Manual           9 AWD     3.5     6 Two … Y     Turbo     
 4 Acura RLX …  28   Manual           7 AWD     3.5     6 Mids… Y     Natural   
 5 Acura TLX …  27.0 Manual           8 FWD     2.4     4 Comp… Y     Natural   
 6 Acura TLX …  26.3 Manual           8 FWD     2.4     4 Comp… Y     Natural   
 7 Alfa… 4C     27.9 Manual           6 RWD     1.8     4 Two … Y     Turbo     
 8 Audi  A3     30.2 Manual           7 FWD     2       4 Subc… Y     Turbo     
 9 Audi  A3 C…  24.8 Manual           7 AWD     2       4 Subc… Y     Turbo     
10 Audi  A3 q…  24.8 Manual           7 AWD     2       4 Subc… Y     Turbo     
# … with 214 more rows, and 3 more variables: fuel <chr>, atvType <chr>,
#   startStop <chr>
```
…
---
## select

#### a function for specifying which columns to keep

Example: How do we keep only the <tt>model</tt>, <tt>mpg</tt>, <tt>transmission</tt> and <tt>cyl</tt> columns?  

```r
cars_narrow <- select(cars2020, model, mpg, transmission, cyl)

cars_narrow
```

```
# A tibble: 1,164 x 4
   model            mpg transmission   cyl
   <chr>          <dbl> <chr>        <dbl>
 1 ILX             27.9 Manual           4
 2 MDX AWD         22.1 Automatic        6
 3 MDX AWD A-SPEC  21.3 Automatic        6
 4 MDX FWD         23   Automatic        6
 5 MDX Hybrid AWD  26.9 Manual           6
 6 NSX Hybrid      21   Manual           6
 7 RDX AWD         23   Automatic        4
 8 RDX AWD A-SPEC  22.9 Automatic        4
 9 RDX FWD         24   Automatic        4
10 RDX FWD A-SPEC  23.6 Automatic        4
# … with 1,154 more rows
```
…
---
## select

#### Example: we can use the <tt>-</tt> to specify columns we don't want to keep:

How do we keep all columns except the <tt>startStop</tt>, and <tt>aspiration</tt>?

```r
cars_alt <- select(cars2020,  -startStop, -aspiration)
cars_alt
```

```
# A tibble: 1,164 x 12
   make  model   mpg transmission gears drive  disp   cyl class sidi  fuel 
   <chr> <chr> <dbl> <chr>        <dbl> <chr> <dbl> <dbl> <chr> <chr> <chr>
 1 Acura ILX    27.9 Manual           8 FWD     2.4     4 Comp… Y     Prem…
 2 Acura MDX …  22.1 Automatic        9 AWD     3.5     6 Sm S… Y     Prem…
 3 Acura MDX …  21.3 Automatic        9 AWD     3.5     6 Sm S… Y     Prem…
 4 Acura MDX …  23   Automatic        9 FWD     3.5     6 Sm S… Y     Prem…
 5 Acura MDX …  26.9 Manual           7 AWD     3       6 Sm S… N     Prem…
 6 Acura NSX …  21   Manual           9 AWD     3.5     6 Two … Y     Prem…
 7 Acura RDX …  23   Automatic       10 AWD     2       4 Sm S… Y     Prem…
 8 Acura RDX …  22.9 Automatic       10 AWD     2       4 Sm S… Y     Prem…
 9 Acura RDX …  24   Automatic       10 FWD     2       4 Sm S… Y     Prem…
10 Acura RDX …  23.6 Automatic       10 FWD     2       4 Sm S… Y     Prem…
# … with 1,154 more rows, and 1 more variable: atvType <chr>
```
…
---
### Assessment solution

```r
df <- filter(cars2020, transmission == "CVT")
df2 <- select(df, -sidi, -aspiration, -startStop)
df3 <- arrange(df2, desc(mpg), model)

df3
```

```
# A tibble: 128 x 11
   make   model     mpg transmission gears drive  disp   cyl class fuel  atvType
   <chr>  <chr>   <dbl> <chr>        <dbl> <chr> <dbl> <dbl> <chr> <chr> <chr>  
 1 Toyota Prius …  55.7 CVT              1 FWD     1.8     4 Mids… Regu… Hybrid 
 2 Toyota Prius …  54.4 CVT              1 FWD     1.8     4 Mids… Regu… Plug-i…
 3 Toyota Prius    52.2 CVT              1 FWD     1.8     4 Mids… Regu… Hybrid 
 4 Toyota Coroll…  52   CVT              1 FWD     1.8     4 Comp… Regu… Hybrid 
 5 Honda  Insight  52.0 CVT              1 FWD     1.5     4 Mids… Regu… Hybrid 
 6 Toyota Camry …  51.8 CVT              6 FWD     2.5     4 Mids… Regu… Hybrid 
 7 Toyota Prius …  50   CVT              1 PT 4…   1.8     4 Mids… Regu… Hybrid 
 8 Honda  Insigh…  48.0 CVT              1 FWD     1.5     4 Mids… Regu… Hybrid 
 9 Honda  Accord…  47.6 CVT              1 FWD     2       4 Large Regu… Hybrid 
10 Toyota Prius c  46.2 CVT              1 FWD     1.5     4 Comp… Regu… Hybrid 
# … with 118 more rows
```
…
  * You could also have overwritten the data frame at each step.
    * your environment is less cluttered
    * but seeing the intermediate data may help with troubleshooting/debugging your code

```r
df <- filter(cars2020, transmission == "CVT")
df <- select(df, -sidi, -aspiration, -startStop)
df <- arrange(df, desc(mpg), model)

df
```

```
# A tibble: 128 x 11
   make   model     mpg transmission gears drive  disp   cyl class fuel  atvType
   <chr>  <chr>   <dbl> <chr>        <dbl> <chr> <dbl> <dbl> <chr> <chr> <chr>  
 1 Toyota Prius …  55.7 CVT              1 FWD     1.8     4 Mids… Regu… Hybrid 
 2 Toyota Prius …  54.4 CVT              1 FWD     1.8     4 Mids… Regu… Plug-i…
 3 Toyota Prius    52.2 CVT              1 FWD     1.8     4 Mids… Regu… Hybrid 
 4 Toyota Coroll…  52   CVT              1 FWD     1.8     4 Comp… Regu… Hybrid 
 5 Honda  Insight  52.0 CVT              1 FWD     1.5     4 Mids… Regu… Hybrid 
 6 Toyota Camry …  51.8 CVT              6 FWD     2.5     4 Mids… Regu… Hybrid 
 7 Toyota Prius …  50   CVT              1 PT 4…   1.8     4 Mids… Regu… Hybrid 
 8 Honda  Insigh…  48.0 CVT              1 FWD     1.5     4 Mids… Regu… Hybrid 
 9 Honda  Accord…  47.6 CVT              1 FWD     2       4 Large Regu… Hybrid 
10 Toyota Prius c  46.2 CVT              1 FWD     1.5     4 Comp… Regu… Hybrid 
# … with 118 more rows
```
…
---

## group_by

#### A function to put the data into groups (before you summarise)

What if we wanted summary statistics for Automatic, Manual and CVT?

```r
grouped_cars <- group_by(cars2020, transmission)
grouped_cars
```

```
# A tibble: 1,164 x 14
# Groups:   transmission [3]
   make  model   mpg transmission gears drive  disp   cyl class sidi  aspiration
   <chr> <chr> <dbl> <chr>        <dbl> <chr> <dbl> <dbl> <chr> <chr> <chr>     
 1 Acura ILX    27.9 Manual           8 FWD     2.4     4 Comp… Y     Natural   
 2 Acura MDX …  22.1 Automatic        9 AWD     3.5     6 Sm S… Y     Natural   
 3 Acura MDX …  21.3 Automatic        9 AWD     3.5     6 Sm S… Y     Natural   
 4 Acura MDX …  23   Automatic        9 FWD     3.5     6 Sm S… Y     Natural   
 5 Acura MDX …  26.9 Manual           7 AWD     3       6 Sm S… N     Natural   
 6 Acura NSX …  21   Manual           9 AWD     3.5     6 Two … Y     Turbo     
 7 Acura RDX …  23   Automatic       10 AWD     2       4 Sm S… Y     Turbo     
 8 Acura RDX …  22.9 Automatic       10 AWD     2       4 Sm S… Y     Turbo     
 9 Acura RDX …  24   Automatic       10 FWD     2       4 Sm S… Y     Turbo     
10 Acura RDX …  23.6 Automatic       10 FWD     2       4 Sm S… Y     Turbo     
# … with 1,154 more rows, and 3 more variables: fuel <chr>, atvType <chr>,
#   startStop <chr>
```

---

#### How is the grouped data frame different from the original?
--

```r
grouped_cars
```

```
# A tibble: 1,164 x 14
# Groups:   transmission [3]
   make  model   mpg transmission gears drive  disp   cyl class sidi  aspiration
   <chr> <chr> <dbl> <chr>        <dbl> <chr> <dbl> <dbl> <chr> <chr> <chr>     
 1 Acura ILX    27.9 Manual           8 FWD     2.4     4 Comp… Y     Natural   
 2 Acura MDX …  22.1 Automatic        9 AWD     3.5     6 Sm S… Y     Natural   
 3 Acura MDX …  21.3 Automatic        9 AWD     3.5     6 Sm S… Y     Natural   
 4 Acura MDX …  23   Automatic        9 FWD     3.5     6 Sm S… Y     Natural   
 5 Acura MDX …  26.9 Manual           7 AWD     3       6 Sm S… N     Natural   
 6 Acura NSX …  21   Manual           9 AWD     3.5     6 Two … Y     Turbo     
 7 Acura RDX …  23   Automatic       10 AWD     2       4 Sm S… Y     Turbo     
 8 Acura RDX …  22.9 Automatic       10 AWD     2       4 Sm S… Y     Turbo     
 9 Acura RDX …  24   Automatic       10 FWD     2       4 Sm S… Y     Turbo     
10 Acura RDX …  23.6 Automatic       10 FWD     2       4 Sm S… Y     Turbo     
# … with 1,154 more rows, and 3 more variables: fuel <chr>, atvType <chr>,
#   startStop <chr>
```
…
