dplyr 1: key verbs
…
---
## First, let's get some data

```r
library(readr)

chi_emps <- read_csv("data/ChicagoEmployees.csv")
chi_emps
```

```
## # A tibble: 33,702 x 7
##    Name           Title               Dept         SalHr   Hrs Salary  Rate
##    <chr>          <chr>               <chr>        <chr> <dbl>  <dbl> <dbl>
##  1 ADRIANO, R     PARAMEDIC           FIRE         S        NA  72510  NA  
##  2 AFFANEH, M     POLICE OFFICER      POLICE       S        NA  93354  NA  
##  3 AFOENYI, P     PROGRAM TRAINEE     FAMILY & SUP H        20     NA  13  
##  4 AGAR, B        DEPUTY COMMISSIONER WATER MGMNT  S        NA 132972  NA  
##  5 AGEE, L        POLICE OFFICER      POLICE       S        NA  90024  NA  
##  6 AGNEW, A       MOTOR TRUCK DRIVER  AVIATION     H        40     NA  37.4
##  7 AGNEW, M       SERGEANT            POLICE       S        NA 111444  NA  
##  8 AGOSTA, J      POLICE OFFICER      POLICE       S        NA 103932  NA  
##  9 AGOSTINELLI, M FIREFIGHTER-EMT     FIRE         S        NA 107106  NA  
## 10 AGOSTINI, L    ASST DIR            POLICE       S        NA  95736  NA  
## # … with 33,692 more rows
```
…
---
## filter

#### a function for specifying which rows to keep

Example 1: How do we get all employees that are salaried?

```r
salaried <- filter(chi_emps, SalHr == "S")
salaried
```

```
## # A tibble: 25,528 x 7
##    Name           Title                  Dept        SalHr   Hrs Salary  Rate
##    <chr>          <chr>                  <chr>       <chr> <dbl>  <dbl> <dbl>
##  1 ADRIANO, R     PARAMEDIC              FIRE        S        NA  72510    NA
##  2 AFFANEH, M     POLICE OFFICER         POLICE      S        NA  93354    NA
##  3 AGAR, B        DEPUTY COMMISSIONER    WATER MGMNT S        NA 132972    NA
##  4 AGEE, L        POLICE OFFICER         POLICE      S        NA  90024    NA
##  5 AGNEW, M       SERGEANT               POLICE      S        NA 111444    NA
##  6 AGOSTA, J      POLICE OFFICER         POLICE      S        NA 103932    NA
##  7 AGOSTINELLI, M FIREFIGHTER-EMT        FIRE        S        NA 107106    NA
##  8 AGOSTINI, L    ASST DIR               POLICE      S        NA  95736    NA
##  9 AGOSTO, H      EXPLSV DETECT K9 HNDLR POLICE      S        NA  94524    NA
## 10 AGREDANO, E    POLICE OFFICER         POLICE      S        NA  48078    NA
## # … with 25,518 more rows
```
…
#### 

Example 3: How do we get all salaried employees of the Police Department?
--

```r
sal_police <- filter(chi_emps, SalHr == "S", 
                     Dept == "POLICE")

sal_police
```

```
## # A tibble: 13,824 x 7
##    Name        Title                  Dept   SalHr   Hrs Salary  Rate
##    <chr>       <chr>                  <chr>  <chr> <dbl>  <dbl> <dbl>
##  1 AFFANEH, M  POLICE OFFICER         POLICE S        NA  93354    NA
##  2 AGEE, L     POLICE OFFICER         POLICE S        NA  90024    NA
##  3 AGNEW, M    SERGEANT               POLICE S        NA 111444    NA
##  4 AGOSTA, J   POLICE OFFICER         POLICE S        NA 103932    NA
##  5 AGOSTINI, L ASST DIR               POLICE S        NA  95736    NA
##  6 AGOSTO, H   EXPLSV DETECT K9 HNDLR POLICE S        NA  94524    NA
##  7 AGREDANO, E POLICE OFFICER         POLICE S        NA  48078    NA
##  8 AGRON, E    SERGEANT               POLICE S        NA 122472    NA
##  9 AGRON, E    POLICE OFFICER         POLICE S        NA  90024    NA
## 10 AGUADA, G   POLICE OFFICER         POLICE S        NA  84054    NA
## # … with 13,814 more rows
```
…
---
## select

#### a function for specifying which columns to keep

Example: How do we keep only the names, titles, departments and salaries of the salaried employees?  

```r
salaried2 <- select(salaried, Name, Title, Dept, Salary)
salaried2
```

```
## # A tibble: 25,528 x 4
##    Name           Title                  Dept        Salary
##    <chr>          <chr>                  <chr>        <dbl>
##  1 ADRIANO, R     PARAMEDIC              FIRE         72510
##  2 AFFANEH, M     POLICE OFFICER         POLICE       93354
##  3 AGAR, B        DEPUTY COMMISSIONER    WATER MGMNT 132972
##  4 AGEE, L        POLICE OFFICER         POLICE       90024
##  5 AGNEW, M       SERGEANT               POLICE      111444
##  6 AGOSTA, J      POLICE OFFICER         POLICE      103932
##  7 AGOSTINELLI, M FIREFIGHTER-EMT        FIRE        107106
##  8 AGOSTINI, L    ASST DIR               POLICE       95736
##  9 AGOSTO, H      EXPLSV DETECT K9 HNDLR POLICE       94524
## 10 AGREDANO, E    POLICE OFFICER         POLICE       48078
## # … with 25,518 more rows
```
…
#### Alternative: we can use the <tt>-</tt> to specify columns we don't want to keep:

```r
salaried3 <- select(salaried, -SalHr, -Hrs, -Rate)
salaried3
```

```
## # A tibble: 25,528 x 4
##    Name           Title                  Dept        Salary
##    <chr>          <chr>                  <chr>        <dbl>
##  1 ADRIANO, R     PARAMEDIC              FIRE         72510
##  2 AFFANEH, M     POLICE OFFICER         POLICE       93354
##  3 AGAR, B        DEPUTY COMMISSIONER    WATER MGMNT 132972
##  4 AGEE, L        POLICE OFFICER         POLICE       90024
##  5 AGNEW, M       SERGEANT               POLICE      111444
##  6 AGOSTA, J      POLICE OFFICER         POLICE      103932
##  7 AGOSTINELLI, M FIREFIGHTER-EMT        FIRE        107106
##  8 AGOSTINI, L    ASST DIR               POLICE       95736
##  9 AGOSTO, H      EXPLSV DETECT K9 HNDLR POLICE       94524
## 10 AGREDANO, E    POLICE OFFICER         POLICE       48078
## # … with 25,518 more rows
```
…
---
### Assessment solution

```r
df <- filter(chi_emps, SalHr == "H")
df2 <- select(df, -SalHr, -Salary)
df3 <- arrange(df2, desc(Rate), desc(Hrs))

df3
```

```
## # A tibble: 8,174 x 5
##    Name         Title              Dept         Hrs  Rate
##    <chr>        <chr>              <chr>      <dbl> <dbl>
##  1 JONES, J     PSYCHIATRIST       HEALTH        35 128  
##  2 JILEK, G     DENTIST            HEALTH        35  61.6
##  3 ARMSTRONG, C FOREMAN OF LINEMEN TRANSPORTN    40  58.4
##  4 DEVLIN, B    FOREMAN OF LINEMEN TRANSPORTN    40  58.4
##  5 HENRY, L     FOREMAN OF LINEMEN TRANSPORTN    40  58.4
##  6 HUGHES, T    FOREMAN OF LINEMEN TRANSPORTN    40  58.4
##  7 HUNT, B      FOREMAN OF LINEMEN TRANSPORTN    40  58.4
##  8 KACOR, R     FOREMAN OF LINEMEN TRANSPORTN    40  58.4
##  9 LEWIS, T     FOREMAN OF LINEMEN TRANSPORTN    40  58.4
## 10 MARTINEZ, E  FOREMAN OF LINEMEN TRANSPORTN    40  58.4
## # … with 8,164 more rows
```
…
  * You could also have overwritten the data frame at each step.
    * your environment is less cluttered
    * but seeing the intermediate data may help with troubleshooting/debugging your code

```r
df <- filter(chi_emps, SalHr == "H")
df <- select(df, -SalHr, -Salary)
df <- arrange(df, desc(Rate), desc(Hrs))

df
```

```
## # A tibble: 8,174 x 5
##    Name         Title              Dept         Hrs  Rate
##    <chr>        <chr>              <chr>      <dbl> <dbl>
##  1 JONES, J     PSYCHIATRIST       HEALTH        35 128  
##  2 JILEK, G     DENTIST            HEALTH        35  61.6
##  3 ARMSTRONG, C FOREMAN OF LINEMEN TRANSPORTN    40  58.4
##  4 DEVLIN, B    FOREMAN OF LINEMEN TRANSPORTN    40  58.4
##  5 HENRY, L     FOREMAN OF LINEMEN TRANSPORTN    40  58.4
##  6 HUGHES, T    FOREMAN OF LINEMEN TRANSPORTN    40  58.4
##  7 HUNT, B      FOREMAN OF LINEMEN TRANSPORTN    40  58.4
##  8 KACOR, R     FOREMAN OF LINEMEN TRANSPORTN    40  58.4
##  9 LEWIS, T     FOREMAN OF LINEMEN TRANSPORTN    40  58.4
## 10 MARTINEZ, E  FOREMAN OF LINEMEN TRANSPORTN    40  58.4
## # … with 8,164 more rows
```
…
---
## mutate

#### a function to add new columns

Example: Adding a column that indicates whether an individual has an annual salary greater than 
$100,000 to the salaried data set

```r
sal100 <- mutate(salaried, above100 = if_else(Salary > 100000, TRUE, FALSE))
sal100
```

```
## # A tibble: 25,528 x 8
##    Name          Title               Dept      SalHr   Hrs Salary  Rate above100
##    <chr>         <chr>               <chr>     <chr> <dbl>  <dbl> <dbl> <lgl>   
##  1 ADRIANO, R    PARAMEDIC           FIRE      S        NA  72510    NA FALSE   
##  2 AFFANEH, M    POLICE OFFICER      POLICE    S        NA  93354    NA FALSE   
##  3 AGAR, B       DEPUTY COMMISSIONER WATER MG… S        NA 132972    NA TRUE    
##  4 AGEE, L       POLICE OFFICER      POLICE    S        NA  90024    NA FALSE   
##  5 AGNEW, M      SERGEANT            POLICE    S        NA 111444    NA TRUE    
##  6 AGOSTA, J     POLICE OFFICER      POLICE    S        NA 103932    NA TRUE    
##  7 AGOSTINELLI,… FIREFIGHTER-EMT     FIRE      S        NA 107106    NA TRUE    
##  8 AGOSTINI, L   ASST DIR            POLICE    S        NA  95736    NA FALSE   
##  9 AGOSTO, H     EXPLSV DETECT K9 H… POLICE    S        NA  94524    NA FALSE   
## 10 AGREDANO, E   POLICE OFFICER      POLICE    S        NA  48078    NA FALSE   
## # … with 25,518 more rows
```
…
---

## group_by

#### A function to put the data into groups (before you summarise)

```r
grouped_chi <- group_by(chi_emps, Dept)
grouped_chi
```

```
## # A tibble: 33,702 x 7
## # Groups:   Dept [36]
##    Name           Title               Dept         SalHr   Hrs Salary  Rate
##    <chr>          <chr>               <chr>        <chr> <dbl>  <dbl> <dbl>
##  1 ADRIANO, R     PARAMEDIC           FIRE         S        NA  72510  NA  
##  2 AFFANEH, M     POLICE OFFICER      POLICE       S        NA  93354  NA  
##  3 AFOENYI, P     PROGRAM TRAINEE     FAMILY & SUP H        20     NA  13  
##  4 AGAR, B        DEPUTY COMMISSIONER WATER MGMNT  S        NA 132972  NA  
##  5 AGEE, L        POLICE OFFICER      POLICE       S        NA  90024  NA  
##  6 AGNEW, A       MOTOR TRUCK DRIVER  AVIATION     H        40     NA  37.4
##  7 AGNEW, M       SERGEANT            POLICE       S        NA 111444  NA  
##  8 AGOSTA, J      POLICE OFFICER      POLICE       S        NA 103932  NA  
##  9 AGOSTINELLI, M FIREFIGHTER-EMT     FIRE         S        NA 107106  NA  
## 10 AGOSTINI, L    ASST DIR            POLICE       S        NA  95736  NA  
## # … with 33,692 more rows
```

---

#### How is the grouped data frame different from the original?
--

```r
grouped_chi
```

```
## # A tibble: 33,702 x 7
## # Groups:   Dept [36]
##    Name           Title               Dept         SalHr   Hrs Salary  Rate
##    <chr>          <chr>               <chr>        <chr> <dbl>  <dbl> <dbl>
##  1 ADRIANO, R     PARAMEDIC           FIRE         S        NA  72510  NA  
##  2 AFFANEH, M     POLICE OFFICER      POLICE       S        NA  93354  NA  
##  3 AFOENYI, P     PROGRAM TRAINEE     FAMILY & SUP H        20     NA  13  
##  4 AGAR, B        DEPUTY COMMISSIONER WATER MGMNT  S        NA 132972  NA  
##  5 AGEE, L        POLICE OFFICER      POLICE       S        NA  90024  NA  
##  6 AGNEW, A       MOTOR TRUCK DRIVER  AVIATION     H        40     NA  37.4
##  7 AGNEW, M       SERGEANT            POLICE       S        NA 111444  NA  
##  8 AGOSTA, J      POLICE OFFICER      POLICE       S        NA 103932  NA  
##  9 AGOSTINELLI, M FIREFIGHTER-EMT     FIRE         S        NA 107106  NA  
## 10 AGOSTINI, L    ASST DIR            POLICE       S        NA  95736  NA  
## # … with 33,692 more rows
```
…
