13 tidyr: Data wrangling functions | A book for practicing R
…
## # A tibble: 6 x 10
##    Runs Inning Notout DNB   Opp   Ground `Start Date` Match Format MatchNum
##   <int> <fct>  <lgl>  <lgl> <chr> <chr>  <chr>        <chr> <chr>  <chr>   
## 1    11 1      FALSE  FALSE Paki… Karac… 9-Nov-90     ODI … ODI    639     
## 2    44 1      FALSE  FALSE Paki… Lahore 6-Dec-90     Test… Test   1158    
## 3     5 2      FALSE  FALSE Paki… Lahore 6-Dec-90     Test… Test   1158    
## 4    23 1      FALSE  FALSE Engl… Lord's 27-May-91    ODI … ODI    678     
## 5     5 1      FALSE  FALSE Paki… Sharj… 17-Oct-91    ODI … ODI    679     
## 6    45 1      FALSE  FALSE India Sharj… 19-Oct-91    ODI … ODI    681

Reshaping data

unemp

## # A tibble: 72 x 13
##     Year   Jan   Feb   Mar   Apr   May   Jun   Jul   Aug   Sep   Oct   Nov
##    <dbl> <dbl> <dbl> <dbl> <dbl> <dbl> <dbl> <dbl> <dbl> <dbl> <dbl> <dbl>
##  1  1948   3.4   3.8   4     3.9   3.5   3.6   3.6   3.9   3.8   3.7   3.8
##  2  1949   4.3   4.7   5     5.3   6.1   6.2   6.7   6.8   6.6   7.9   6.4
##  3  1950   6.5   6.4   6.3   5.8   5.5   5.4   5     4.5   4.4   4.2   4.2
##  4  1951   3.7   3.4   3.4   3.1   3     3.2   3.1   3.1   3.3   3.5   3.5
##  5  1952   3.2   3.1   2.9   2.9   3     3     3.2   3.4   3.1   3     2.8
##  6  1953   2.9   2.6   2.6   2.7   2.5   2.5   2.6   2.7   2.9   3.1   3.5
##  7  1954   4.9   5.2   5.7   5.9   5.9   5.6   5.8   6     6.1   5.7   5.3
##  8  1955   4.9   4.7   4.6   4.7   4.3   4.2   4     4.2   4.1   4.3   4.2
##  9  1956   4     3.9   4.2   4     4.3   4.3   4.4   4.1   3.9   3.9   4.3
## 10  1957   4.2   3.9   3.7   3.9   4.1   4.3   4.2   4.1   4.4   4.5   5.1
## # … with 62 more rows, and 1 more variable: Dec <dbl>

gather

unemp2 <- gather(unemp, key = Month, value = Rate, -Year)
unemp2

## # A tibble: 864 x 3
##     Year Month  Rate
##    <dbl> <chr> <dbl>
##  1  1948 Jan     3.4
##  2  1949 Jan     4.3
##  3  1950 Jan     6.5
##  4  1951 Jan     3.7
##  5  1952 Jan     3.2
##  6  1953 Jan     2.9
##  7  1954 Jan     4.9
##  8  1955 Jan     4.9
##  9  1956 Jan     4  
## 10  1957 Jan     4.2
## # … with 854 more rows

unemp3 <- gather(unemp, key = Month, value = Rate, `Jan`:`Dec`)
unemp3

## # A tibble: 864 x 3
##     Year Month  Rate
##    <dbl> <chr> <dbl>
##  1  1948 Jan     3.4
##  2  1949 Jan     4.3
##  3  1950 Jan     6.5
##  4  1951 Jan     3.7
##  5  1952 Jan     3.2
##  6  1953 Jan     2.9
##  7  1954 Jan     4.9
##  8  1955 Jan     4.9
##  9  1956 Jan     4  
## 10  1957 Jan     4.2
## # … with 854 more rows

unemp4 <- gather(unemp, key = Month, value = Rate, 2:12)
unemp4

## # A tibble: 792 x 4
##     Year   Dec Month  Rate
##    <dbl> <dbl> <chr> <dbl>
##  1  1948   4   Jan     3.4
##  2  1949   6.6 Jan     4.3
##  3  1950   4.3 Jan     6.5
##  4  1951   3.1 Jan     3.7
##  5  1952   2.7 Jan     3.2
##  6  1953   4.5 Jan     2.9
##  7  1954   5   Jan     4.9
##  8  1955   4.2 Jan     4.9
##  9  1956   4.2 Jan     4  
## 10  1957   5.2 Jan     4.2
## # … with 782 more rows

spread

spread(unemp2, key = Month, value = Rate)

## # A tibble: 72 x 13
##     Year   Apr   Aug   Dec   Feb   Jan   Jul   Jun   Mar   May   Nov   Oct
##    <dbl> <dbl> <dbl> <dbl> <dbl> <dbl> <dbl> <dbl> <dbl> <dbl> <dbl> <dbl>
##  1  1948   3.9   3.9   4     3.8   3.4   3.6   3.6   4     3.5   3.8   3.7
##  2  1949   5.3   6.8   6.6   4.7   4.3   6.7   6.2   5     6.1   6.4   7.9
##  3  1950   5.8   4.5   4.3   6.4   6.5   5     5.4   6.3   5.5   4.2   4.2
##  4  1951   3.1   3.1   3.1   3.4   3.7   3.1   3.2   3.4   3     3.5   3.5
##  5  1952   2.9   3.4   2.7   3.1   3.2   3.2   3     2.9   3     2.8   3  
##  6  1953   2.7   2.7   4.5   2.6   2.9   2.6   2.5   2.6   2.5   3.5   3.1
##  7  1954   5.9   6     5     5.2   4.9   5.8   5.6   5.7   5.9   5.3   5.7
##  8  1955   4.7   4.2   4.2   4.7   4.9   4     4.2   4.6   4.3   4.2   4.3
##  9  1956   4     4.1   4.2   3.9   4     4.4   4.3   4.2   4.3   4.3   3.9
## 10  1957   3.9   4.1   5.2   3.9   4.2   4.2   4.3   3.7   4.1   5.1   4.5
## # … with 62 more rows, and 1 more variable: Sep <dbl>
